com/cars24/cockroach/entity/AddressDto.class
com/cars24/cockroach/repository/UserRepository.class
com/cars24/cockroach/Application.class
com/cars24/cockroach/entity/Address$AddressBuilder.class
com/cars24/cockroach/controller/UserController.class
com/cars24/cockroach/entity/Address.class
com/cars24/cockroach/entity/UserDto.class
com/cars24/cockroach/entity/UserService.class
com/cars24/cockroach/entity/User$UserBuilder.class
com/cars24/cockroach/entity/User.class
